…
``` r
# Display the sorted results
print(error_by_day)
```

    ## # A tibble: 102 × 5
    ##    date       TotalAbsDifference AvgAbsDifference MaxAbsDifference
    ##    <date>                  <dbl>            <dbl>            <dbl>
    ##  1 2019-09-20       0.0000000253         5.36e-12         6.84e-11
    ##  2 2019-09-21       0.0000000442         5.03e-12         1.22e-10
    ##  3 2019-09-22       0.0000000332         3.71e-12         8.26e-11
    ##  4 2019-09-23       0.0000000405         4.51e-12         1.08e-10
    ##  5 2019-09-24       0.0000000420         4.65e-12         6.50e-11
    ##  6 2019-09-25       0.0000000403         4.44e-12         1.09e-10
    ##  7 2019-09-26       0.0000000241         2.74e-12         3.88e-11
    ##  8 2019-09-27       0.0000000293         3.30e-12         4.72e-11
    ##  9 2019-09-28       0.0000000353         3.95e-12         1.22e-10
    ## 10 2019-09-29       0.0000000517         5.55e-12         1.02e-10
    ## # ℹ 92 more rows
    ## # ℹ 1 more variable: AbsDifference90p <dbl>
…
